../Core/Src/main.c:80:5:main	32	static
../Core/Src/main.c:205:6:SystemClock_Config	88	static
../Core/Src/main.c:252:13:MX_CAN1_Init	8	static
../Core/Src/main.c:289:13:MX_TIM4_Init	48	static
../Core/Src/main.c:347:13:MX_USART2_UART_Init	8	static
../Core/Src/main.c:380:13:MX_GPIO_Init	48	static
../Core/Src/main.c:419:6:usDelay	16	static
../Core/Src/main.c:435:6:Error_Handler	4	static,ignoring_inline_asm
