../Core/Src/main.c:76:5:main	24	static
../Core/Src/main.c:150:6:SystemClock_Config	88	static
../Core/Src/main.c:197:13:MX_TIM4_Init	32	static
../Core/Src/main.c:242:13:MX_USART2_UART_Init	8	static
../Core/Src/main.c:275:13:MX_GPIO_Init	32	static
../Core/Src/main.c:301:6:usDelay	16	static
../Core/Src/main.c:317:6:Error_Handler	4	static
