../Core/Src/stm32f4xx_hal_msp.c:63:6:HAL_MspInit	16	static
../Core/Src/stm32f4xx_hal_msp.c:87:6:HAL_CAN_MspInit	48	static
../Core/Src/stm32f4xx_hal_msp.c:126:6:HAL_CAN_MspDeInit	16	static
../Core/Src/stm32f4xx_hal_msp.c:157:6:HAL_TIM_Base_MspInit	48	static
../Core/Src/stm32f4xx_hal_msp.c:195:6:HAL_TIM_Base_MspDeInit	16	static
../Core/Src/stm32f4xx_hal_msp.c:225:6:HAL_UART_MspInit	48	static
../Core/Src/stm32f4xx_hal_msp.c:261:6:HAL_UART_MspDeInit	16	static
